aspect	example_message
bought	$GILD Back in Bullish
bought	$LE Back in for a swing on this one @ 15.35/sh. Last time was +50% within 3 months
bought	$WLL In for a quarter position @ 8.10...
bought	$VNR Just added 2,300 @ .77 Going in for long term as this will hit $1.20 next month
bought	AMD nice bounce - in for 3k @ 13.16
bought	Bought back into $TSLA, previously sold at $362
breakout	$TSLA That is one pretty chart and breakout.
breakout	$TSLA Looking like another breakout today based on $QQQ and premarket
breakout	$PLUG Weekly view. Ready for breakout
breakout	Stocks to watch today: $KKR Buy on break of 18.98. $CUTR Buy break of 24.15. $FIVE Buy break of 52.70. $CCMP Buy break of 78.21
breakout	breakoutstock - $AMZN $950 Price Target
breakout	$WATT breaking out Bullish
buy_recommendation	Macquarie Reiterates “Buy” Rating for http://Amazon.com , Inc. $AMZN 
buy_recommendation	Cantor Fitzgerald Sticks to Its Buy Rating for Amazon $AMZN 
buy_recommendation	Analyst Activity – Barclays PLC Reiterates Buy on Agilent Technologies (NYSE:A) https://t.co/SJSMP8qzxs $A
buy_recommendation	$AMC 87% of analysts have a buy rating on $AMC with 20% upside
buy_recommendation	5-star analyst Robin M. Farley from UBS reiterated a BUY on $MGM
buy_recommendation	Check Point Software Technologies Ltd. $CHKP Receives Outperform Rating from Oppenheimer Holdings, Inc. 
buying_intention	@TradeIdea might buy $TSLA after hours if I can get in on a dip after earnings
buying_intention	$GILD time to add
buying_intention	$GILD Nice! Time to pile up on $IBB Bullish
buying_intention	Short interest for $A is relatively small: https://www.finstead.com/symbol/info/A/shorts. Go long?
buying_intention	$DIA $YM_F $SPY $ES_F $VXX $IWM $QQQ $AAPL Big buyer on YM VWAP (green dots). Suspect SPY gap fill there also.
buying_intention	Buying at open $FB and $aapl. Nasdaq to rally tomorrow 1%
earnings_beat	Coca-Cola shares rise after earnings beat expectations
earnings_beat	MarketWatch: Ford offers positive 2017 guidance after Q2 earnings beat, but shares wobble
earnings_beat	Sensata Technologies Holding N.V. $ST Shares Gap Up Following Earnings Beat
earnings_beat	AMD stock soars 10% after strong guidance, earnings beat 
earnings_beat	Werner Enterprises, Inc. $WERN Sees Large Volume Increase After Earnings Beat 
earnings_beat	$GRVY huge earnings beat
earnings_miss	$BBBY After earnings it's tanking
earnings_miss	$SPPI drops sharply after bad earnings. Investors not liking what they see. Say hello to $5's
earnings_miss	$HIMX great short entry, earnings miss + bad guide + downgrade next week = more downside
earnings_miss	$M stock is getting hurt after an Earnings miss. Down ~6% currently in pre-market trading
earnings_miss	$TWTR Analysts expect another a big decline in year-over-year revenues for Twitter in its report tomorrow. https://stocknews.com/news/twtr-wall-street-has-low-expectations-for-twitter-inc-twtr-earnings/
earnings_miss	$BRK.B $BRK.A earnings miss due to insurance losses, but highest revenue ever. Almost 12% higher revenue since Q4 and almost 25% higher yoy!
insider_buying	$GE notice how insiders have only been buying the last 3 months - not selling
insider_buying	$COTY Recent significant insider buying at $COTY, $REV, and $IFF. 
insider_buying	$PLXP I like the insider buying taking place
insider_buying	$INSY lets go green after that insider buy!
insider_buying	$HK Insider buy on Wed.June 14th 20,000
insider_buying	$SKLN I am sure.. There is insider buying yesterday as well
insider_selling	Insiders were selling last week
insider_selling	Another sign: Insiders are selling shares again. 
insider_selling	$PTLA why are the insider selling?
insider_selling	@coregas insider selling is rampant. If you cant post respectfully, you arnt worth the pennies you trade. Good luck with your EnRon shares:)
insider_selling	$QTNA lockup over. Insider selling
insider_selling	Apple Inc. $AAPL Insider Luca Maestri Sells 4,757 Shares of Stock 
moving_higher	$AMD Train going North
moving_higher	$IRBT gonna test 110, wait for breakout. Buying pressure in L2 and spread to 120 very thin.
moving_higher	$IRBT 14 points off the lows..
moving_higher	$Googl $Amzn running higher into the close. Will this be an earnings beat for $Googl?
moving_higher	$STML Stock is riding a good momentum. I believe stock will go much higher from here possibly $15 before end of the year
moving_higher	$PLX Higher today than Friday, higher tomorrow, higher the next day. No problem.trying to time this is impossible. Let it play.
moving_lower	$MMM falls after revenue comes in lower than expectations. With Dollar weak, they should have blown it away.
moving_lower	Bed Bath & Beyond shares tank after earnings, sales miss $BBBY #retail 
moving_lower	$SNAP Negative grinder. Search for revenues
moving_lower	$AMD its over... going back down to 11 now
moving_lower	$SPY Going south
moving_lower	$P headed lower, holding off and buying once it hits high 7's. Buy out will be coming soon at that level!
negative_outlook	Could easily see $AMZN drop 200 points after hours tomorrow after earnings
negative_outlook	$TWTR No position, very bearish. History repeats itself. H&amp;S in May, then crash. H&amp;S forming now, crash coming. Proceed carefully if buying.
negative_outlook	$PYPL open at 62 tomorrow
negative_outlook	$FB Price action is looking sketchy...... bulls beware
negative_outlook	$TWTR fresh new low of day coming. enjoy.
negative_outlook	$TWLO stock looks weak. On its way to $35 and even $30
new_high	$TSLA don't be fooled with these 👇f**ls !! This will make a new high today! once it breaks $328.46 #stocks #trading #investing
new_high	$TSLA tapping on highs.
new_high	$BIOL this stock is solid 52 week high
new_high	$AMZN broke 52 week high
new_high	$CVEO welcome 52 week high
new_high	$LN broke high on Nikkei
overbought	RSI is overbought on $SHOP and momentum is falling
overbought	$JNUG overbought, need to reset technicals
overbought	$GV markets overbought ...feel the correction is close
overbought	$KATE overbought, shooting star candle Friday, lots of bull ppl on this board. 3 extremely reliable indicators of impending doom next week
overbought	$IO sell the pop, market extreme overbought here $SDRL $X $CHK
overbought	$DCTH is this seriously over bought.
oversold	$CIE stock is oversold and shorted to death. I don't really think it matters what ER says, the shorts will be out Monday
oversold	Bought $FTR on belief stock oversold. Dividend cut and bad news priced in.
oversold	$VIAV is in Stochastic Oversold winning 62.65% in the past
oversold	FIVE STOCKS OVERSOLD RSI 20 TO WATCH FOR POSSIBLE REVERSEAL $AGRX $IPWR $JOE $QCOM $ZGNX
oversold	$RH Huge short interest. All of retail oversold. RSI below 20 today. Big squeeze coming. Likely back to upper 30s before earnings
oversold	These stocks are OVERSOLD & UNDERVALUED! So we need to buy @ support! $SINO $SCON $LTBR $ITEK $GALE $HGG $GBR $OPTT
overvalued	$FB $AMZN $AAPL $NFLX $GOOG $NVDA waaaay too hot!!! due for another tech sell off!!!
overvalued	$WY overvalued....sorry folks but with merger costs/ housing slowdowns & less paper product demand then WY shares too high
overvalued	$MTN this stock is so overvalued its ridiculous, can we go back down to the 80s
overvalued	$PCLN overvalued by 51.76%, mediocre fundamentals, not a strong buy
overvalued	$DPZ Domino's is an overvalued and leveraged company in a high-flying sector of a market near all-time highs..
overvalued	$RIG $AMZN $NFLX $TSLA lol, Amazon and Tesla are overvalued...
positive_outlook	$AUPH great future...long hold; i believe in the science
positive_outlook	I'm betting the house on this one
positive_outlook	$AMZN Bullish as ever! Bullish
positive_outlook	$AMZN 1100 coming after ER, hold tight and enjoy the ride to the moon $QQQ $GOOGL Bullish
positive_outlook	$TWTR Shorts will get fried tomorrow, this dipping situation is exactly what I expected today and used the opportunity to get 50 contracts
positive_outlook	$AAPL looks particularly poised to bounce.  It held that $142.50 level through weeks of selling.
profit_warning	Price-comparison site http://Moneysupermarket.com  slumps the most in 4 years after profit warning https://bloom.bg/2tK2o0y
profit_warning	Gemalto shares slump on third profit warning https://www.ft.com/content/1ee22294-7071-11e7-aca6-c6bd07df1a3c … via @FT
profit_warning	Hibbett Sports shares plummet 30% after profit warning, ‘woefully late’ e-commerce launch
profit_warning	INM has issued a profit warning - blaming Brexit, lower readership and boardroom woes
profit_warning	Carillion chief steps down after profit warning
profit_warning	Carillion shares slump as chief executive quits after profit warning 
rating_downgrade	$CMG downgraded to Sell at Stifel Nicolaus
rating_downgrade	$SWI downgraded to market perform from outperform at FBR & Co.
rating_downgrade	$DH.CA NA BK analyst dropped rating to under perform with target price to $18 + high likelihood of dividend cut
rating_downgrade	$SPG downgraded to Neutral from Buy at Goldman. PT to $185 from $207
rating_downgrade	Amazon.com , Inc. $AMZN Downgraded by Zacks Investment Research to “Strong Sell” 
rating_downgrade	Twitter, Inc. $TWTR Rating Lowered to Sell at BidaskClub 
rating_upgrade	Amazon.com  Inc  $AMZN  just had an analyst rating upgrade... 
rating_upgrade	#Google Parent And FANG Stock Alphabet Gets Rating Upgrade - Investor's Business Daily
rating_upgrade	$TSO Tesoro Achieves Investment Grade Credit Rating with Standard & Poor's Upgrade
rating_upgrade	CLSA On ITC: Rating: Upgrade To Underperform From Sell, Taget: Rs 285
rating_upgrade	$FB Buy rating by MKM Partners with a $105 PT
rating_upgrade	JMP Securities Upgrades Rating On Apartment Investment and Manage (AIV) To “Market Outperform” http://ift.tt/2tGfZrE 
revenue_down	Brexit drives down profits and advertising revenue at ITV 
revenue_down	GM Q2 Revenue $37BN, down 1.1% Y/Y, Exp. $40.15BN EPS $1.89, Exp. $1.70
revenue_down	CTG revenue falls 9%, lowers full-year revenue guidance
revenue_down	IBM revenue growth down 3% over the past year, its 20th consecutive YoY decline. $IBM
revenue_down	GM Q2 Profit Tops But Revenue Falls Short As Car, Truck Sales Dip
revenue_down	$TWTR users up revenue down is terrible news. The worst.
revenue_up	Caterpillar has big revenue & sales increases in Asia-Pacific. Sales are marginally up domestically
revenue_up	Alphabet revenue up 21 percent to $26B
revenue_up	$PEP Q2'17 delivered 6% organic revenue D&E growth & 3% reported net revenue D&E ... $PEP Q2 organic revenue up 3.1%; reported net revenue up 2.0%
revenue_up	$SHOP Shopify revenue up 86% year-over-year (long) 
revenue_up	$XTNT 10% increase in revenue yoy, 24.5 million in revenue and 25 million is the breakeven point with total cost of operating
revenue_up	$GAWK conference call today with revenue up to 136% !!!
sell_recommendation	Barclays reiterated Mack-Cali Realty $CLI at Sell. Maybe wanna stay away Value investors
sell_recommendation	Under Armour downgraded to Sell from Hold at Deutsche Bank - $UAA
sell_recommendation	$AMD GS reiterated Sell rating, so that isn't helping
sell_recommendation	$AMD Citigroup Inc. issued a sell rating and a $2.00 price objective on the stock
sell_recommendation	Amazon.com , Inc. $AMZN Downgraded by Zacks Investment Research to “Strong Sell”
sell_recommendation	Citigroup maintains Sell rating for Paychex $PAYX
selling_intention	$SCON might sell this and pump the funds into $GBR
selling_intention	$UWTI 25K shares left in U. Might sell all by Monday
selling_intention	$IRBT might sell a little tomorrow
selling_intention	$EXEL i mean fuck, i might dump the entire equity of my HELOC in to this shit and $EXAS
selling_intention	$ARIA I am thinking about selling, any thoughts......
selling_intention	$AAPL Small position here for a quick day trade...will average down and exit if no bounce within the hour
selling_pressure	$AAPL Selling pressure aided by put buyers trying to exploit S-T opp. Same thing creates bullish pressure on call
selling_pressure	The selling pressure in a technology ETF preceded this latest selloff in tech stocks $AAPL $GOOG $AMZN $FB $MSFT
selling_pressure	$AAPL Market Pressure Accumulator has flattened over the last couple of weeks which is not typical into earnings; Liquidity showing selling
selling_pressure	$AAPL under more selling pressure today - down 2.5%
selling_pressure	$AAPL gravestone doji indicating downward selling pressure. After long upward trajectory,healthy to retest 108/106 
selling_pressure	$TVIX in @$10.07 please stop selling people. Get a hold of reality and let's get this back to $12 ish. Buy buy buy buy buy buy and MORE BUY!
short_squeeze	Dillard's (+8.2%) is my Stock of the Day. MoxReports bought a stake and cited the prospect of a short squeeze. $DDS https://www.bloomberg.com/quote/DDS:US
short_squeeze	Interesting day today for the #USD,we will either see a painful short-squeeze,or a boost in the most crowded trade in the planet.
short_squeeze	$amd probably pop little more tomorrow (maybe little short squeeze) then profit taking & will settle to $14s by Friday IMHO just saying
short_squeeze	$AKS bought some 7 calls before earning. 25% short interest and everyone expected they will miss = epic short squeeze.
short_squeeze	15% of float is short. Short squeeze should push this thing further.
short_squeeze	$TWTR $30 SHORT SQUEEZE 60 MILLION SHARES SHORT (long SIZE CALL OPTION position since $14) UP SIZE $AAPL ALL IN TWITTER
shorting	@sraman short short short. Sell ur house wife liver and short short short
shorting	$MOMO went long yesterday flipped short today awesome 2 day ride. Thanks $MOMO
shorting	$RLYP I'm short from 29, PT 18.97. Bearish
shorting	$ACIA SPECULATION - NEW SHORT AT 111.XX | LOOKS LIKE SELLING IS ACCELERATING
shorting	$TREE New short position..selling call spreads...
shorting	$SPY..$JPM, $GS, $C, $BAC, $MS, $XLF, $KBE...Shorting the banks...'Specially $GS!  Out before earnings.
sold	$FB sold all at $68.56 after hour trade
sold	$MU Im out... Sold at 13.84
sold	$PLX investors like me will sell off. i sold my 50k shares of plx until i know the plan
sold	I sold my position! 9% profit
sold	I sold my $PEIX shares today @ $6.07 but will buy them back lower.
sold	$AAPL Closed below 8ema. Sold position
trending_higher	TSLA long the upward trending tunnel $TSLA 
trending_higher	$TPTW trending up again, could we test the .10 breakout point? http://ow.ly/cMMf30cK577  $DRYS $CBIS $ACOL $SING $MCOA $TSLA $MSFT $GOOG
trending_higher	$NPHC trending above yesterdays closing levels pre market
trending_higher	$SWRM bids building, nice and steady this chart is trending up.
trending_higher	Love how $TSLA 200sma is trending higher after 2 years ..this is not something to be LT short (technically speaking)
trending_higher	Shopify $SHOP still trending higher. Strong stock up 70% ytd
trending_lower	That $TSLA long I took earlier was so dumb in hind sight...stock got rejected at 10-ema after 2-day pop and down trending on daily..
trending_lower	CMG Like stepping in front of a Mac truck. Bearish
trending_lower	$AMD will go lower in after hours
trending_lower	$GDXJ bear flag broke Monday. Lower prices imminent. Longs only hope here is a dead cat bounce.
trending_lower	$GOOG lower lows & lower highs
trending_lower	short $SBUX 51.25, market trending lower, starbucks trending lower
trending_sideways	$DAX Sideways and tight range until this afternoon methinks
trending_sideways	$ITEK another sideways day
trending_sideways	$JNUG $JDST whipsaw action; pair trade until we B/O of the consolidating trading range GLTA
trending_sideways	$SPY hilarious, how many people got whipsawed on that one?
trending_sideways	$AAPL making good money on those heavy swings today
trending_sideways	$BPMX This stock has been trending sideways for a long time. 3 steps fwd, 2 back
undervalued	$SBGL The most undervalued gold/platinum stock in the world! Target 60
undervalued	$ARNC Stock is significantly undervalued. The Fastener business alone is worth more than the current stock price and it's a cash cow
undervalued	$CXW is currently way undervalued and will rise back to the $19's soon
undervalued	$VRX Valeant is deeply undervalued as it will generate enough cash to buy back entire company & pay off debt in 9 yrs
undervalued	$PZG Undervalued. "Sleeper Gold" project in Nevada very promising!
undervalued	$TA One of the most undervalued stocks with the most potential! This is a 401K or IRA stock right here! Best long term play for value!
