{
  "volumes": [],
  "id": "/ssix-financial-classifier",
  "cmd": null,
  "args": null,
  "user": null,
  "env": {},
  "instances": 1,
  "cpus": 2,
  "mem": 10240,
  "disk": 0,
  "gpus": 0,
  "executor": "",
  "constraints": [
    [
      "hostname",
      "UNIQUE"
    ],
    [
      "hostname",
      "LIKE",
      "10.196.106.43"
    ]
  ],
  "fetch": [],
  "storeUrls": [],
  "backoffSeconds": 1,
  "backoffFactor": 1.15,
  "maxLaunchDelaySeconds": 3600,
  "container": {
    "type": "DOCKER",
    "volumes": [],
    "docker": {
      "image": "docker.insight-centre.org:5000/financial_classifier:latest",
      "network": "BRIDGE",
      "portMappings": [
        {
          "containerPort": 5000,
          "hostPort": 5000,
          "servicePort": 9000,
          "protocol": "tcp",
          "labels": {
            "VIP_0": "/ssix-financial-classifier:5000"
          }
        }
      ],
      "privileged": false,
      "parameters": [],
      "forcePullImage": false
    }
  },
  "healthChecks": [
    {
      "path": "/",
      "protocol": "HTTP",
      "portIndex": 0,
      "gracePeriodSeconds": 300,
      "intervalSeconds": 60,
      "timeoutSeconds": 20,
      "maxConsecutiveFailures": 3,
      "ignoreHttp1xx": false
    }
  ],
  "readinessChecks": [],
  "dependencies": [],
  "upgradeStrategy": {
    "minimumHealthCapacity": 1,
    "maximumOverCapacity": 1
  },
  "labels": {},
  "acceptedResourceRoles": null,
  "ipAddress": null,
  "residency": null,
  "secrets": {},
  "taskKillGracePeriodSeconds": null,
  "portDefinitions": [
    {
      "port": 9000,
      "protocol": "tcp",
      "labels": {
        "VIP_0": "/ssix-financial-classifier:5000"
      }
    }
  ],
  "requirePorts": false
}
